{
    "actions": [],
    "allow_import": 1,
    "allow_rename": 1,
    "autoname": "HR-TAX-DEC-.YYYY.-.#####",
    "creation": "2018-04-13 16:53:36.175504",
    "doctype": "DocType",
    "editable_grid": 1,
    "engine": "InnoDB",
    "field_order": [
     "employee",
     "employee_name",
     "department",
     "column_break_2",
     "payroll_period",
     "company",
     "currency",
     "amended_from",
     "section_break_8",
     "declarations",
     "section_break_10",
     "total_declared_amount",
     "column_break_12",
     "total_exemption_amount"
    ],
    "fields": [
     {
      "fieldname": "employee",
      "fieldtype": "Link",
      "in_list_view": 1,
      "label": "Employee",
      "options": "Employee",
      "reqd": 1
     },
     {
      "fetch_from": "employee.employee_name",
      "fieldname": "employee_name",
      "fieldtype": "Data",
      "label": "Employee Name",
      "read_only": 1
     },
     {
      "fetch_from": "employee.department",
      "fieldname": "department",
      "fieldtype": "Link",
      "label": "Department",
      "options": "Department",
      "read_only": 1
     },
     {
      "fieldname": "column_break_2",
      "fieldtype": "Column Break"
     },
     {
      "fieldname": "payroll_period",
      "fieldtype": "Link",
      "in_list_view": 1,
      "label": "Payroll Period",
      "options": "Payroll Period",
      "reqd": 1
     },
     {
      "fetch_from": "employee.company",
      "fieldname": "company",
      "fieldtype": "Link",
      "label": "Company",
      "options": "Company"
     },
     {
      "fieldname": "amended_from",
      "fieldtype": "Link",
      "label": "Amended From",
      "no_copy": 1,
      "options": "Employee Tax Exemption Declaration",
      "print_hide": 1,
      "read_only": 1
     },
     {
      "fieldname": "section_break_8",
      "fieldtype": "Section Break"
     },
     {
      "fieldname": "declarations",
      "fieldtype": "Table",
      "label": "Declarations",
      "options": "Employee Tax Exemption Declaration Category"
     },
     {
      "fieldname": "section_break_10",
      "fieldtype": "Section Break"
     },
     {
      "fieldname": "total_declared_amount",
      "fieldtype": "Currency",
      "label": "Total Declared Amount",
      "options": "currency",
      "read_only": 1
     },
     {
      "fieldname": "column_break_12",
      "fieldtype": "Column Break"
     },
     {
      "fieldname": "total_exemption_amount",
      "fieldtype": "Currency",
      "label": "Total Exemption Amount",
      "options": "currency",
      "read_only": 1
     },
     {
      "depends_on": "eval: doc.employee",
      "fieldname": "currency",
      "fieldtype": "Link",
      "label": "Currency",
      "options": "Currency",
      "print_hide": 1,
      "reqd": 1
     }
    ],
    "is_submittable": 1,
    "links": [],
    "modified": "2022-01-19 12:58:54.707871",
    "modified_by": "Administrator",
    "module": "Payroll",
    "name": "Employee Tax Exemption Declaration",
    "naming_rule": "Expression (old style)",
    "owner": "Administrator",
    "permissions": [
     {
      "amend": 1,
      "cancel": 1,
      "create": 1,
      "delete": 1,
      "email": 1,
      "export": 1,
      "print": 1,
      "read": 1,
      "report": 1,
      "role": "System Manager",
      "share": 1,
      "submit": 1,
      "write": 1
     },
     {
      "amend": 1,
      "cancel": 1,
      "create": 1,
      "delete": 1,
      "email": 1,
      "export": 1,
      "print": 1,
      "read": 1,
      "report": 1,
      "role": "HR Manager",
      "share": 1,
      "submit": 1,
      "write": 1
     },
     {
      "amend": 1,
      "cancel": 1,
      "create": 1,
      "delete": 1,
      "email": 1,
      "export": 1,
      "print": 1,
      "read": 1,
      "report": 1,
      "role": "HR User",
      "share": 1,
      "submit": 1,
      "write": 1
     },
     {
      "amend": 1,
      "cancel": 1,
      "create": 1,
      "delete": 1,
      "email": 1,
      "export": 1,
      "print": 1,
      "read": 1,
      "report": 1,
      "role": "Employee",
      "share": 1,
      "submit": 1,
      "write": 1
     }
    ],
    "search_fields": "employee_name",
    "sort_field": "modified",
    "sort_order": "DESC",
    "states": [],
    "title_field": "employee_name",
    "track_changes": 1
   }
