{
 "actions": [],
 "creation": "2018-02-25 07:35:07.736146",
 "doctype": "DocType",
 "editable_grid": 1,
 "engine": "InnoDB",
 "field_order": [
  "status",
  "item",
  "item_name",
  "qty",
  "uom",
  "rate",
  "column_break_3",
  "from_date",
  "to_date",
  "section_break_10",
  "price_determination",
  "column_break_11",
  "fixed_rate",
  "section_break_6",
  "description",
  "payment_plan_section",
  "stripe_plan",
  "column_break_17",
  "add_invoice_item",
  "stripe_invoice_item",
  "portal_section",
  "edit_on_portal",
  "accounting_dimensions_section",
  "dimension_col_break"
 ],
 "fields": [
  {
   "fieldname": "qty",
   "fieldtype": "Int",
   "in_list_view": 1,
   "label": "Quantity",
   "reqd": 1
  },
  {
   "fieldname": "rate",
   "fieldtype": "Currency",
   "in_list_view": 1,
   "label": "Rate",
   "read_only": 1
  },
  {
   "fetch_from": "item.description",
   "fetch_if_empty": 1,
   "fieldname": "description",
   "fieldtype": "Text Editor",
   "label": "Description"
  },
  {
   "fieldname": "from_date",
   "fieldtype": "Date",
   "in_list_view": 1,
   "label": "From Date"
  },
  {
   "fieldname": "to_date",
   "fieldtype": "Date",
   "in_list_view": 1,
   "label": "To Date"
  },
  {
   "default": "Inactive",
   "fieldname": "status",
   "fieldtype": "Select",
   "hidden": 1,
   "label": "Status",
   "options": "Active\nUpcoming\nInactive"
  },
  {
   "fieldname": "column_break_3",
   "fieldtype": "Column Break"
  },
  {
   "fieldname": "section_break_6",
   "fieldtype": "Section Break"
  },
  {
   "fieldname": "item",
   "fieldtype": "Link",
   "in_list_view": 1,
   "label": "Item",
   "options": "Item",
   "reqd": 1
  },
  {
   "fieldname": "section_break_10",
   "fieldtype": "Section Break"
  },
  {
   "fetch_from": "item.sales_uom",
   "fetch_if_empty": 1,
   "fieldname": "uom",
   "fieldtype": "Link",
   "label": "Unit of measure",
   "options": "UOM"
  },
  {
   "default": "Based on price list",
   "fieldname": "price_determination",
   "fieldtype": "Select",
   "label": "Price Determination",
   "options": "\nFixed rate\nBased on price list",
   "reqd": 1
  },
  {
   "depends_on": "eval:doc.price_determination == \"Fixed rate\"",
   "fieldname": "fixed_rate",
   "fieldtype": "Currency",
   "label": "Fixed rate"
  },
  {
   "collapsible": 1,
   "fieldname": "payment_plan_section",
   "fieldtype": "Section Break",
   "hidden": 1,
   "label": "Payment gateways and plans"
  },
  {
   "collapsible": 1,
   "fieldname": "accounting_dimensions_section",
   "fieldtype": "Section Break",
   "label": "Accounting Dimensions"
  },
  {
   "fieldname": "dimension_col_break",
   "fieldtype": "Column Break"
  },
  {
   "depends_on": "eval:!doc.stripe_invoice_item",
   "fieldname": "stripe_plan",
   "fieldtype": "Data",
   "label": "Stripe Plan"
  },
  {
   "fieldname": "column_break_11",
   "fieldtype": "Column Break"
  },
  {
   "fieldname": "column_break_17",
   "fieldtype": "Column Break"
  },
  {
   "depends_on": "eval:!doc.stripe_invoice_item && !doc.stripe_plan",
   "fieldname": "add_invoice_item",
   "fieldtype": "Button",
   "label": "Add as invoice item"
  },
  {
   "depends_on": "eval:!doc.stripe_plan",
   "fieldname": "stripe_invoice_item",
   "fieldtype": "Data",
   "label": "Stripe Invoice Item"
  },
  {
   "fieldname": "portal_section",
   "fieldtype": "Section Break",
   "label": "Portal"
  },
  {
   "default": "0",
   "fieldname": "edit_on_portal",
   "fieldtype": "Check",
   "label": "Allow remove on portal"
  },
  {
   "fetch_from": "item.item_name",
   "fieldname": "item_name",
   "fieldtype": "Data",
   "label": "Item Name",
   "read_only": 1
  }
 ],
 "index_web_pages_for_search": 1,
 "istable": 1,
 "links": [],
 "modified": "2020-09-09 14:28:16.862037",
 "modified_by": "Administrator",
 "module": "Accounts",
 "name": "Subscription Plan Detail",
 "owner": "Administrator",
 "permissions": [],
 "quick_entry": 1,
 "sort_field": "modified",
 "sort_order": "DESC",
 "track_changes": 1
}
