{
    "actions": [],
    "autoname": "HR-TRF-.YYYY.-.#####",
    "creation": "2016-08-08 06:35:34.158568",
    "doctype": "DocType",
    "editable_grid": 1,
    "engine": "InnoDB",
    "field_order": [
     "employee",
     "employee_name",
     "department",
     "course",
     "column_break_3",
     "training_event",
     "event_name",
     "trainer_name",
     "section_break_6",
     "feedback",
     "amended_from"
    ],
    "fields": [
     {
      "fieldname": "employee",
      "fieldtype": "Link",
      "in_global_search": 1,
      "in_standard_filter": 1,
      "label": "Employee",
      "options": "Employee",
      "reqd": 1
     },
     {
      "fetch_from": "employee.employee_name",
      "fieldname": "employee_name",
      "fieldtype": "Read Only",
      "in_global_search": 1,
      "label": "Employee Name"
     },
     {
      "fetch_from": "employee.department",
      "fieldname": "department",
      "fieldtype": "Link",
      "label": "Department",
      "options": "Department",
      "read_only": 1
     },
     {
      "fieldname": "column_break_3",
      "fieldtype": "Column Break"
     },
     {
      "fieldname": "training_event",
      "fieldtype": "Link",
      "in_standard_filter": 1,
      "label": "Training Event",
      "options": "Training Event",
      "reqd": 1
     },
     {
      "fetch_from": "training_event.event_name",
      "fieldname": "event_name",
      "fieldtype": "Data",
      "in_list_view": 1,
      "label": "Event Name",
      "read_only": 1
     },
     {
      "fetch_from": "training_event.trainer_name",
      "fieldname": "trainer_name",
      "fieldtype": "Data",
      "in_list_view": 1,
      "label": "Trainer Name",
      "read_only": 1
     },
     {
      "fieldname": "section_break_6",
      "fieldtype": "Section Break"
     },
     {
      "fieldname": "feedback",
      "fieldtype": "Text",
      "label": "Feedback",
      "reqd": 1
     },
     {
      "fieldname": "amended_from",
      "fieldtype": "Link",
      "label": "Amended From",
      "no_copy": 1,
      "options": "Training Feedback",
      "print_hide": 1,
      "read_only": 1
     }
    ],
    "is_submittable": 1,
    "links": [],
    "modified": "2022-01-18 19:32:20.805277",
    "modified_by": "Administrator",
    "module": "HR",
    "name": "Training Feedback",
    "naming_rule": "Expression (old style)",
    "owner": "Administrator",
    "permissions": [
     {
      "amend": 1,
      "cancel": 1,
      "create": 1,
      "delete": 1,
      "email": 1,
      "export": 1,
      "print": 1,
      "read": 1,
      "report": 1,
      "role": "HR Manager",
      "share": 1,
      "submit": 1,
      "write": 1
     },
     {
      "create": 1,
      "email": 1,
      "export": 1,
      "print": 1,
      "read": 1,
      "report": 1,
      "role": "Employee",
      "share": 1,
      "submit": 1,
      "write": 1
     }
    ],
    "search_fields": "employee_name, training_event, event_name",
    "sort_field": "modified",
    "sort_order": "DESC",
    "states": [],
    "title_field": "employee_name"
   }
