{
    "actions": [],
    "autoname": "HR-INCOME-.######",
    "creation": "2020-03-18 15:04:40.767434",
    "doctype": "DocType",
    "editable_grid": 1,
    "engine": "InnoDB",
    "field_order": [
     "employee",
     "employee_name",
     "payroll_period",
     "column_break_3",
     "company",
     "source",
     "amount",
     "amended_from"
    ],
    "fields": [
     {
      "fieldname": "employee",
      "fieldtype": "Link",
      "in_list_view": 1,
      "label": "Employee",
      "options": "Employee",
      "reqd": 1
     },
     {
      "fieldname": "payroll_period",
      "fieldtype": "Link",
      "in_list_view": 1,
      "label": "Payroll Period",
      "options": "Payroll Period",
      "reqd": 1
     },
     {
      "fieldname": "column_break_3",
      "fieldtype": "Column Break"
     },
     {
      "fieldname": "company",
      "fieldtype": "Link",
      "in_list_view": 1,
      "label": "Company",
      "options": "Company",
      "reqd": 1
     },
     {
      "fieldname": "source",
      "fieldtype": "Data",
      "label": "Source"
     },
     {
      "fieldname": "amount",
      "fieldtype": "Currency",
      "in_list_view": 1,
      "label": "Amount",
      "options": "Company:company:default_currency",
      "reqd": 1
     },
     {
      "fetch_from": "employee.employee_name",
      "fieldname": "employee_name",
      "fieldtype": "Data",
      "label": "Employee Name",
      "read_only": 1
     },
     {
      "fieldname": "amended_from",
      "fieldtype": "Link",
      "label": "Amended From",
      "no_copy": 1,
      "options": "Employee Other Income",
      "print_hide": 1,
      "read_only": 1
     }
    ],
    "is_submittable": 1,
    "links": [],
    "modified": "2022-01-19 12:58:43.255900",
    "modified_by": "Administrator",
    "module": "Payroll",
    "name": "Employee Other Income",
    "naming_rule": "Expression (old style)",
    "owner": "Administrator",
    "permissions": [
     {
      "amend": 1,
      "cancel": 1,
      "create": 1,
      "delete": 1,
      "email": 1,
      "export": 1,
      "print": 1,
      "read": 1,
      "report": 1,
      "role": "HR Manager",
      "share": 1,
      "submit": 1,
      "write": 1
     },
     {
      "amend": 1,
      "cancel": 1,
      "create": 1,
      "delete": 1,
      "email": 1,
      "export": 1,
      "print": 1,
      "read": 1,
      "report": 1,
      "role": "HR User",
      "share": 1,
      "submit": 1,
      "write": 1
     },
     {
      "amend": 1,
      "cancel": 1,
      "create": 1,
      "delete": 1,
      "email": 1,
      "export": 1,
      "print": 1,
      "read": 1,
      "report": 1,
      "role": "Employee",
      "share": 1,
      "submit": 1,
      "write": 1
     }
    ],
    "quick_entry": 1,
    "search_fields": "employee_name",
    "sort_field": "modified",
    "sort_order": "DESC",
    "states": [],
    "title_field": "employee_name",
    "track_changes": 1
   }
